<svg width="142" height="50" viewBox="0 0 142 50" fill="none" xmlns="http://www.w3.org/2000/svg">
<g clip-path="url(#clip0_140_8747)">
<path d="M130.67 0.000162131H11.6472C11.2133 0.000162131 10.7847 0.000162131 10.352 0.00265645C9.98975 0.00515077 9.63043 0.0123968 9.26473 0.0184954C8.47028 0.0283502 7.6777 0.102025 6.89387 0.238881C6.11114 0.378716 5.35294 0.642344 4.64489 1.02085C3.93772 1.40256 3.29155 1.89855 2.72983 2.49083C2.16516 3.08144 1.69447 3.76411 1.33585 4.51258C0.976238 5.25957 0.726883 6.06003 0.596395 6.88633C0.464667 7.71158 0.393783 8.54635 0.384379 9.38314C0.3734 9.76552 0.372241 10.1492 0.366455 10.5316V39.3588C0.372241 39.746 0.3734 40.1211 0.384379 40.5085C0.393786 41.3453 0.46467 42.18 0.596395 43.0052C0.726522 43.832 0.975892 44.6329 1.33585 45.3802C1.69431 46.1262 2.16507 46.8061 2.72983 47.3935C3.28942 47.9884 3.936 48.4847 4.64489 48.8635C5.35293 49.243 6.11106 49.5082 6.89387 49.6502C7.67783 49.7859 8.47033 49.8597 9.26473 49.8707C9.63043 49.8792 9.98975 49.884 10.352 49.884C10.7847 49.8865 11.2133 49.8865 11.6472 49.8865H130.67C131.095 49.8865 131.527 49.8865 131.952 49.884C132.313 49.884 132.682 49.8792 133.043 49.8707C133.836 49.8602 134.627 49.7865 135.409 49.6502C136.194 49.5072 136.955 49.2421 137.667 48.8635C138.375 48.4845 139.021 47.9882 139.58 47.3935C140.143 46.8038 140.615 46.1244 140.978 45.3802C141.335 44.6324 141.582 43.8315 141.711 43.0052C141.842 42.1799 141.916 41.3453 141.93 40.5085C141.935 40.1211 141.935 39.746 141.935 39.3588C141.944 38.9057 141.944 38.4551 141.944 37.9946V11.8932C141.944 11.4365 141.944 10.9834 141.935 10.5316C141.935 10.1492 141.935 9.76552 141.93 9.38309C141.916 8.54622 141.842 7.71164 141.711 6.88628C141.582 6.06046 141.335 5.26006 140.978 4.51253C140.248 3.0123 139.09 1.79111 137.667 1.02074C136.955 0.643157 136.194 0.379598 135.409 0.238769C134.627 0.10131 133.836 0.0276093 133.043 0.0183208C132.682 0.0122346 132.313 0.00492628 131.952 0.00249432C131.527 0 131.095 0 130.67 0V0.000162131Z" fill="#A6A6A6"/>
<path d="M10.3578 48.7956C9.99735 48.7956 9.64558 48.7908 9.28793 48.7823C8.54704 48.7721 7.80788 48.7041 7.07651 48.5789C6.39454 48.4551 5.7339 48.2248 5.11638 47.8956C4.50451 47.5691 3.94645 47.141 3.46355 46.6277C2.97367 46.1204 2.56582 45.5321 2.25616 44.886C1.94309 44.2358 1.72643 43.5387 1.61373 42.8193C1.49201 42.0462 1.42616 41.2644 1.41674 40.4808C1.40923 40.2178 1.39941 39.342 1.39941 39.342V10.532C1.39941 10.532 1.40987 9.66967 1.41679 9.41634C1.42582 8.63397 1.49129 7.85346 1.61264 7.08157C1.72555 6.36011 1.94238 5.66107 2.25562 5.00866C2.56414 4.36303 2.96972 3.77426 3.45666 3.2652C3.94304 2.75129 4.50289 2.321 5.1158 1.99001C5.7319 1.66187 6.3913 1.43318 7.07188 1.31163C7.80565 1.18513 8.54738 1.11674 9.29084 1.10702L10.3584 1.0918H131.946L133.027 1.10764C133.763 1.11686 134.498 1.18465 135.225 1.31041C135.913 1.43349 136.579 1.66376 137.202 1.99367C138.43 2.66071 139.429 3.71602 140.06 5.01171C140.368 5.65961 140.581 6.35295 140.693 7.06817C140.816 7.8464 140.884 8.63304 140.898 9.42182C140.902 9.77502 140.902 10.1544 140.902 10.532C140.911 10.9997 140.911 11.4448 140.911 11.8936V37.995C140.911 38.4481 140.911 38.8902 140.902 39.3359C140.902 39.7415 140.902 40.113 140.897 40.4954C140.883 41.2701 140.816 42.0427 140.695 42.807C140.585 43.5317 140.369 44.2342 140.056 44.8898C139.744 45.5289 139.339 46.1121 138.855 46.618C138.371 47.134 137.812 47.5646 137.199 47.8932C136.577 48.2249 135.912 48.4561 135.225 48.5789C134.494 48.7048 133.755 48.7728 133.014 48.7823C132.667 48.7908 132.305 48.7956 131.952 48.7956L130.67 48.7981L10.3578 48.7956Z" fill="#1D1A2F"/>
<path d="M29.6711 25.3184C29.6839 24.2774 29.9462 23.2568 30.4336 22.3514C30.9211 21.446 31.6179 20.6853 32.4592 20.1401C31.9248 19.3355 31.2197 18.6733 30.4 18.2062C29.5803 17.7391 28.6686 17.4798 27.7372 17.4491C25.7504 17.2293 23.8244 18.7023 22.812 18.7023C21.78 18.7023 20.2212 17.4709 18.5427 17.5074C17.4569 17.5443 16.3988 17.8771 15.4714 18.4734C14.544 19.0696 13.7789 19.9089 13.2506 20.9094C10.9625 25.0855 12.6692 31.2228 14.8611 34.5984C15.9577 36.2513 17.2394 38.0976 18.9164 38.0322C20.5575 37.9604 21.1704 36.9291 23.1513 36.9291C25.1138 36.9291 25.6888 38.0322 27.3999 37.9905C29.1608 37.9604 30.2703 36.3303 31.3285 34.6617C32.1164 33.4839 32.7227 32.1822 33.125 30.8048C32.1019 30.3487 31.2288 29.5852 30.6147 28.6096C30.0005 27.6339 29.6723 26.4893 29.6711 25.3184Z" fill="white"/>
<path d="M26.4392 15.2293C27.3994 14.0143 27.8724 12.4527 27.7578 10.876C26.291 11.0384 24.936 11.7774 23.9629 12.9458C23.4871 13.5166 23.1227 14.1806 22.8905 14.8999C22.6583 15.6192 22.5629 16.3797 22.6097 17.138C23.3434 17.1459 24.0693 16.9783 24.7326 16.6477C25.3959 16.3171 25.9795 15.8321 26.4392 15.2293Z" fill="white"/>
<path d="M50.4152 33.8481H44.815L43.4702 38.0341H41.0981L46.4026 22.5469H48.867L54.1714 38.0341H51.759L50.4152 33.8481ZM45.3951 31.9164H49.8341L47.6458 25.1228H47.5846L45.3951 31.9164Z" fill="white"/>
<path d="M65.6272 32.3886C65.6272 35.8975 63.8456 38.1519 61.157 38.1519C60.4759 38.1894 59.7986 38.024 59.2025 37.6747C58.6065 37.3253 58.1158 36.806 57.7867 36.1764H57.7358V41.7691H55.5371V26.7423H57.6654V28.6203H57.7058C58.0501 27.9937 58.549 27.4771 59.1496 27.1256C59.7502 26.7741 60.43 26.6008 61.1165 26.6242C63.8351 26.6242 65.6272 28.8895 65.6272 32.3886ZM63.3673 32.3886C63.3673 30.1026 62.2465 28.5996 60.5365 28.5996C58.8566 28.5996 57.7266 30.1342 57.7266 32.3886C57.7266 34.6637 58.8566 36.1873 60.5365 36.1873C62.2465 36.1873 63.3673 34.6954 63.3673 32.3886Z" fill="white"/>
<path d="M77.417 32.3886C77.417 35.8975 75.6354 38.1518 72.9468 38.1518C72.2657 38.1894 71.5884 38.024 70.9923 37.6746C70.3963 37.3253 69.9056 36.806 69.5765 36.1763H69.5256V41.7691H67.3269V26.7423H69.4551V28.6203H69.4956C69.8398 27.9937 70.3388 27.4771 70.9394 27.1256C71.54 26.7741 72.2197 26.6008 72.9063 26.6242C75.625 26.6242 77.417 28.8895 77.417 32.3886ZM75.1571 32.3886C75.1571 30.1026 74.0363 28.5996 72.3263 28.5996C70.6464 28.5996 69.5164 30.1342 69.5164 32.3886C69.5164 34.6637 70.6464 36.1873 72.3263 36.1873C74.0363 36.1873 75.1571 34.6954 75.1571 32.3886H75.1571Z" fill="white"/>
<path d="M85.2088 33.7184C85.3717 35.2542 86.787 36.2626 88.7212 36.2626C90.5744 36.2626 91.9077 35.2542 91.9077 33.8694C91.9077 32.6673 91.1036 31.9475 89.1995 31.4542L87.2954 30.9707C84.5976 30.2838 83.3451 28.9538 83.3451 26.7956C83.3451 24.1235 85.5542 22.2881 88.6911 22.2881C91.7956 22.2881 93.9239 24.1235 93.9955 26.7956H91.776C91.6431 25.2501 90.4311 24.3172 88.6599 24.3172C86.8887 24.3172 85.6767 25.2611 85.6767 26.6349C85.6767 27.7298 86.4508 28.3741 88.3445 28.8673L89.9632 29.2863C92.9776 30.0377 94.2301 31.3142 94.2301 33.5795C94.2301 36.4769 92.0406 38.2916 88.5582 38.2916C85.3 38.2916 83.1001 36.5195 82.958 33.7183L85.2088 33.7184Z" fill="white"/>
<path d="M98.9753 24.0703V26.7425H101.012V28.5779H98.9753V34.8027C98.9753 35.7697 99.3832 36.2204 100.279 36.2204C100.52 36.2159 100.762 36.198 101.002 36.1667V37.9912C100.599 38.0705 100.19 38.1064 99.7806 38.0984C97.612 38.0984 96.7662 37.2397 96.7662 35.0499V28.5779H95.2087V26.7425H96.7662V24.0703H98.9753Z" fill="white"/>
<path d="M102.192 32.3887C102.192 28.836 104.177 26.6035 107.272 26.6035C110.378 26.6035 112.354 28.8359 112.354 32.3887C112.354 35.9511 110.389 38.1738 107.272 38.1738C104.157 38.1738 102.192 35.9511 102.192 32.3887ZM110.114 32.3887C110.114 29.9516 109.054 28.5132 107.272 28.5132C105.491 28.5132 104.432 29.9626 104.432 32.3887C104.432 34.8355 105.491 36.2629 107.272 36.2629C109.054 36.2629 110.113 34.8355 110.113 32.3887H110.114Z" fill="white"/>
<path d="M114.167 26.7422H116.264V28.6641H116.314C116.456 28.0638 116.79 27.5334 117.259 27.1619C117.728 26.7903 118.305 26.6004 118.891 26.624C119.144 26.6231 119.397 26.6521 119.644 26.7105V28.8784C119.324 28.7754 118.991 28.7281 118.656 28.7384C118.337 28.7247 118.019 28.7841 117.723 28.9124C117.427 29.0407 117.162 29.2349 116.944 29.4817C116.726 29.7285 116.562 30.0221 116.462 30.3422C116.362 30.6623 116.329 31.0014 116.365 31.3362V38.0336H114.167L114.167 26.7422Z" fill="white"/>
<path d="M129.782 34.7174C129.486 36.7671 127.592 38.1738 125.169 38.1738C122.053 38.1738 120.119 35.973 120.119 32.4423C120.119 28.9005 122.064 26.6035 125.077 26.6035C128.041 26.6035 129.904 28.7495 129.904 32.1731V32.9672H122.339V33.1073C122.304 33.5228 122.353 33.9414 122.483 34.3353C122.614 34.7292 122.822 35.0894 123.095 35.3919C123.367 35.6944 123.698 35.9323 124.064 36.0898C124.431 36.2473 124.825 36.3209 125.22 36.3055C125.74 36.3568 126.261 36.23 126.707 35.9439C127.153 35.6577 127.499 35.2275 127.694 34.7173L129.782 34.7174ZM122.349 31.3473H127.704C127.724 30.9737 127.67 30.5998 127.546 30.2491C127.423 29.8984 127.231 29.5784 126.985 29.3093C126.738 29.0402 126.441 28.8278 126.113 28.6854C125.785 28.5429 125.432 28.4735 125.077 28.4816C124.719 28.4793 124.364 28.5518 124.033 28.6949C123.701 28.838 123.4 29.0489 123.147 29.3153C122.893 29.5818 122.692 29.8985 122.555 30.2473C122.418 30.596 122.348 30.9699 122.349 31.3474V31.3473Z" fill="white"/>
<path d="M43.8324 14.0347H44.7763C44.9388 14.056 45.1037 14.0416 45.2607 13.9925C45.4177 13.9433 45.5633 13.8603 45.6883 13.7489C45.8134 13.6374 45.9151 13.4999 45.9873 13.3449C46.0594 13.1899 46.1003 13.0209 46.1073 12.8484C46.1073 12.1621 45.6174 11.7188 44.7867 11.7188C44.6202 11.6943 44.4508 11.7052 44.2884 11.7508C44.1259 11.7965 43.9738 11.876 43.841 11.9846C43.7082 12.0933 43.5974 12.2289 43.5152 12.3834C43.4329 12.5379 43.3809 12.7083 43.3621 12.8844H42.3257C42.3435 12.5647 42.4236 12.2524 42.5609 11.9668C42.6982 11.6811 42.8899 11.4284 43.1239 11.2242C43.3579 11.0201 43.6292 10.8689 43.9211 10.78C44.2129 10.6912 44.519 10.6667 44.8202 10.7079C46.2101 10.7079 47.1888 11.5282 47.1888 12.709C47.1921 13.1046 47.0665 13.4893 46.8331 13.7991C46.5997 14.1089 46.2726 14.3249 45.9063 14.411V14.4987C46.3405 14.519 46.7494 14.7197 47.0437 15.0569C47.3379 15.3941 47.4935 15.8404 47.4765 16.2982C47.4444 16.6273 47.3502 16.9464 47.1996 17.2366C47.049 17.5269 46.8449 17.7826 46.5993 17.9886C46.3538 18.1947 46.0717 18.347 45.7695 18.4366C45.4674 18.5262 45.1513 18.5514 44.8399 18.5106C44.5277 18.5554 44.2102 18.5336 43.9063 18.4464C43.6024 18.3591 43.3182 18.2082 43.0708 18.0027C42.8233 17.7973 42.6176 17.5414 42.466 17.2503C42.3144 16.9592 42.2199 16.639 42.1882 16.3086H43.2408C43.3043 17.0205 43.9248 17.4797 44.8399 17.4797C45.7549 17.4797 46.3523 16.9639 46.3523 16.2368C46.3523 15.4993 45.7896 15.045 44.8064 15.045H43.8324V14.0347Z" fill="white"/>
<path d="M48.6724 16.7425C48.6724 15.7316 49.3876 15.1489 50.6539 15.066L52.097 14.9784V14.4936C52.097 13.9005 51.7261 13.5656 51.0063 13.5656C50.4193 13.5656 50.0138 13.7927 49.8959 14.1898H48.878C48.9855 13.2251 49.8474 12.6064 51.0559 12.6064C52.3916 12.6064 53.1449 13.3073 53.1449 14.4936V18.3307H52.1316V17.5415H52.0484C51.8796 17.8246 51.6425 18.0554 51.3613 18.2103C51.0802 18.3652 50.7651 18.4387 50.4482 18.4232C50.2246 18.4478 49.9985 18.4226 49.7847 18.3494C49.5708 18.2762 49.3739 18.1566 49.2065 17.9982C49.0392 17.8399 48.9052 17.6463 48.8132 17.43C48.7212 17.2137 48.6732 16.9795 48.6724 16.7425ZM52.097 16.2627V15.7931L50.7959 15.8808C50.0623 15.9326 49.7295 16.1957 49.7295 16.6908C49.7295 17.1962 50.1454 17.4903 50.7174 17.4903C50.885 17.5082 51.0543 17.4904 51.2152 17.4379C51.3761 17.3854 51.5254 17.2993 51.6541 17.1848C51.7828 17.0702 51.8883 16.9296 51.9644 16.7712C52.0405 16.6127 52.0856 16.4398 52.097 16.2627Z" fill="white"/>
<path d="M55.9352 13.6478V18.3307H54.8838V12.7148H58.3916V13.6477L55.9352 13.6478Z" fill="white"/>
<path d="M64.7635 15.5203C64.7635 17.3046 63.9073 18.4233 62.5624 18.4233C62.2323 18.447 61.9026 18.3709 61.6121 18.2038C61.3217 18.0366 61.0826 17.7855 60.9229 17.48H60.8397V20.1978H59.7883V12.7148H60.8005V13.6429H60.879C61.0415 13.3267 61.2838 13.064 61.579 12.8837C61.8742 12.7035 62.211 12.6128 62.552 12.6217C63.9073 12.6216 64.7635 13.7354 64.7635 15.5203ZM63.682 15.5203C63.682 14.3341 63.1494 13.6173 62.2586 13.6173C61.3736 13.6173 60.8201 14.3493 60.8201 15.5252C60.8201 16.6956 61.3735 17.4282 62.254 17.4282C63.1494 17.4282 63.682 16.7114 63.682 15.5203Z" fill="white"/>
<path d="M66.1637 20.3421V19.3879C66.2775 19.4031 66.3921 19.41 66.5068 19.4086C66.7308 19.4261 66.953 19.3558 67.1309 19.2111C67.3087 19.0665 67.4296 18.8577 67.4704 18.6248L67.549 18.3514L65.6206 12.7148H66.7656L68.1013 17.1755H68.1845L69.5155 12.7148H70.6304L68.6443 18.5627C68.1891 19.9292 67.6854 20.3677 66.5993 20.3677C66.5115 20.3677 66.2619 20.3573 66.1637 20.3421Z" fill="white"/>
<path d="M71.4497 16.7369H72.4965C72.5993 17.232 73.0396 17.4902 73.6554 17.4902C74.3555 17.4902 74.7853 17.165 74.7853 16.6596C74.7853 16.1182 74.3994 15.86 73.6554 15.86H72.8581V14.9989H73.6415C74.277 14.9989 74.6005 14.7413 74.6005 14.2718C74.6005 13.8596 74.2874 13.5447 73.6415 13.5447C73.0534 13.5447 72.6236 13.8078 72.5554 14.2511H71.5421C71.6179 13.7417 71.8803 13.284 72.2729 12.9764C72.6655 12.6688 73.1569 12.5359 73.6415 12.6063C74.9078 12.6063 75.6322 13.2098 75.6322 14.1586C75.6382 14.4228 75.5578 14.6811 75.4047 14.8904C75.2516 15.0997 75.035 15.2472 74.7911 15.3083V15.396C75.0815 15.4355 75.348 15.586 75.5401 15.8189C75.7323 16.0518 75.8366 16.351 75.8333 16.6596C75.8333 17.7272 74.9713 18.4335 73.6554 18.4335C72.4919 18.4335 71.5468 17.8714 71.4497 16.7369Z" fill="white"/>
<path d="M77.3474 18.3307V12.7148H78.3896V16.5775H78.4728L80.928 12.7149H81.9702V18.3307H80.928V14.4474H80.8494L78.3896 18.3307L77.3474 18.3307Z" fill="white"/>
<path d="M87.7114 13.6477H86.0337V18.3307H84.9811V13.6477H83.3035V12.7148H87.7114V13.6477Z" fill="white"/>
<path d="M93.3749 16.8145C93.2316 17.3277 92.9219 17.7716 92.4997 18.0685C92.0775 18.3655 91.5698 18.4967 91.0653 18.4392C90.7143 18.449 90.3655 18.3781 90.0431 18.2315C89.7207 18.085 89.4324 17.8662 89.1982 17.5904C88.9641 17.3146 88.7897 16.9884 88.6871 16.6344C88.5845 16.2804 88.5563 15.9072 88.6043 15.5405C88.5575 15.1728 88.5863 14.7987 88.6886 14.4437C88.7909 14.0886 88.9644 13.7609 89.1974 13.4827C89.4303 13.2045 89.7172 12.9823 90.0386 12.8311C90.3601 12.68 90.7086 12.6034 91.0606 12.6065C92.543 12.6065 93.4384 13.6741 93.4384 15.4376V15.8243H89.6765V15.8864C89.6598 16.0926 89.6843 16.3001 89.7482 16.4957C89.8122 16.6913 89.9143 16.8706 90.0479 17.0221C90.1815 17.1736 90.3437 17.294 90.5241 17.3755C90.7045 17.457 90.8991 17.4978 91.0953 17.4953C91.3466 17.527 91.6012 17.4791 91.8267 17.3579C92.0522 17.2367 92.2384 17.0475 92.3616 16.8145L93.3749 16.8145ZM89.6764 15.0047H92.3662C92.3795 14.8163 92.3552 14.627 92.295 14.4491C92.2348 14.2712 92.14 14.1085 92.0166 13.9715C91.8932 13.8345 91.744 13.7262 91.5786 13.6536C91.4132 13.581 91.2352 13.5456 91.056 13.5498C90.8741 13.5472 90.6935 13.5831 90.525 13.6553C90.3565 13.7275 90.2034 13.8345 90.0748 13.9702C89.9462 14.1058 89.8447 14.2672 89.7763 14.4449C89.7079 14.6226 89.6739 14.8129 89.6765 15.0047H89.6764Z" fill="white"/>
<path d="M97.8325 12.7148H100.235C101.277 12.7148 101.888 13.2714 101.888 14.1428C101.89 14.4193 101.801 14.688 101.637 14.904C101.473 15.1199 101.244 15.27 100.988 15.3291V15.4168C101.299 15.4375 101.591 15.5834 101.803 15.8243C102.015 16.0653 102.131 16.3829 102.127 16.7115C102.127 17.6913 101.428 18.3307 100.259 18.3307H97.8325V12.7148ZM98.8747 13.5656V15.0198H99.9169C100.552 15.0198 100.856 14.7622 100.856 14.2872C100.856 13.8493 100.592 13.5656 100.034 13.5656L98.8747 13.5656ZM98.8747 15.8346V17.48H100.121C100.743 17.48 101.076 17.1907 101.076 16.6597C101.076 16.0977 100.699 15.8346 99.9897 15.8346L98.8747 15.8346Z" fill="white"/>
</g>
<defs>
<clipPath id="clip0_140_8747">
<rect width="141.577" height="49.8864" fill="white" transform="translate(0.366455)"/>
</clipPath>
</defs>
</svg>
