<svg width="169" height="50" viewBox="0 0 169 50" fill="none" xmlns="http://www.w3.org/2000/svg">
<g clip-path="url(#clip0_140_8746)">
<path d="M162.131 0H6.2358C2.79186 0 0 2.79186 0 6.2358V43.6506C0 47.0945 2.79186 49.8864 6.2358 49.8864H162.131C165.575 49.8864 168.366 47.0945 168.366 43.6506V6.2358C168.366 2.79186 165.575 0 162.131 0Z" fill="#1D1A2F"/>
<path d="M162.131 0.997728C163.52 0.997728 164.852 1.54959 165.835 2.53192C166.817 3.51425 167.369 4.84657 167.369 6.2358V43.6506C167.369 45.0398 166.817 46.3721 165.835 47.3544C164.852 48.3368 163.52 48.8886 162.131 48.8886H6.2358C4.84657 48.8886 3.51425 48.3368 2.53192 47.3544C1.54959 46.3721 0.997728 45.0398 0.997728 43.6506V6.2358C0.997728 4.84657 1.54959 3.51425 2.53192 2.53192C3.51425 1.54959 4.84657 0.997728 6.2358 0.997728H162.131ZM162.131 0H6.2358C4.58196 0 2.99586 0.656984 1.82642 1.82642C0.656984 2.99586 0 4.58196 0 6.2358V43.6506C0 45.3044 0.656984 46.8905 1.82642 48.0599C2.99586 49.2294 4.58196 49.8864 6.2358 49.8864H162.131C163.785 49.8864 165.371 49.2294 166.54 48.0599C167.71 46.8905 168.366 45.3044 168.366 43.6506V6.2358C168.366 4.58196 167.71 2.99586 166.54 1.82642C165.371 0.656984 163.785 0 162.131 0Z" fill="#A6A6A6"/>
<path d="M84.9814 27.1257C83.9307 27.1282 82.9042 27.4422 82.0319 28.028C81.1595 28.6139 80.4805 29.4452 80.0807 30.417C79.6809 31.3887 79.5782 32.4572 79.7856 33.4873C79.993 34.5174 80.5012 35.4629 81.246 36.2042C81.9907 36.9455 82.9386 37.4492 83.9697 37.6518C85.0008 37.8544 86.0687 37.7467 87.0386 37.3423C88.0085 36.9379 88.8366 36.255 89.4184 35.3799C90.0001 34.5048 90.3093 33.4769 90.3068 32.4261C90.317 31.7251 90.186 31.0293 89.9217 30.38C89.6573 29.7307 89.265 29.1412 88.7681 28.6466C88.2713 28.1521 87.6799 27.7625 87.0294 27.5012C86.3788 27.24 85.6824 27.1122 84.9814 27.1257ZM84.9814 35.6438C84.3374 35.6888 83.6947 35.5391 83.1369 35.214C82.579 34.8889 82.1319 34.4036 81.8536 33.821C81.5753 33.2384 81.4787 32.5856 81.5763 31.9474C81.6739 31.3092 81.9613 30.7151 82.401 30.2424C82.8408 29.7697 83.4126 29.4402 84.0421 29.2967C84.6715 29.1533 85.3296 29.2025 85.9308 29.438C86.5319 29.6736 87.0483 30.0845 87.4128 30.6174C87.7773 31.1503 87.9731 31.7805 87.9746 32.4261C87.9947 32.8352 87.9327 33.2442 87.7922 33.6289C87.6517 34.0136 87.4356 34.3664 87.1567 34.6662C86.8777 34.9661 86.5415 35.2071 86.1679 35.375C85.7943 35.5429 85.3909 35.6343 84.9814 35.6438ZM73.3579 27.1257C72.3071 27.1282 71.2807 27.4422 70.4083 28.028C69.536 28.6139 68.857 29.4452 68.4572 30.417C68.0573 31.3887 67.9546 32.4572 68.1621 33.4873C68.3695 34.5174 68.8777 35.4629 69.6225 36.2042C70.3672 36.9455 71.3151 37.4492 72.3461 37.6518C73.3772 37.8544 74.4452 37.7467 75.4151 37.3423C76.3849 36.9379 77.2131 36.255 77.7948 35.3799C78.3766 34.5048 78.6858 33.4769 78.6833 32.4261C78.6935 31.7251 78.5625 31.0293 78.2981 30.38C78.0338 29.7307 77.6415 29.1412 77.1446 28.6466C76.6477 28.1521 76.0564 27.7625 75.4059 27.5012C74.7553 27.24 74.0589 27.1122 73.3579 27.1257ZM73.3579 35.6438C72.7139 35.6888 72.0712 35.5391 71.5133 35.214C70.9555 34.8889 70.5084 34.4036 70.2301 33.821C69.9518 33.2384 69.8551 32.5856 69.9528 31.9474C70.0504 31.3092 70.3378 30.7151 70.7775 30.2424C71.2173 29.7697 71.789 29.4402 72.4185 29.2967C73.048 29.1533 73.7061 29.2025 74.3072 29.438C74.9084 29.6736 75.4248 30.0845 75.7893 30.6174C76.1538 31.1503 76.3495 31.7805 76.3511 32.4261C76.3712 32.8352 76.3092 33.2442 76.1687 33.6289C76.0282 34.0136 75.8121 34.3664 75.5331 34.6662C75.2542 34.9661 74.918 35.2071 74.5444 35.375C74.1708 35.5429 73.7674 35.6343 73.3579 35.6438ZM59.5394 28.7595V31.0044H64.9271C64.8427 32.0617 64.4031 33.0594 63.68 33.8354C63.1395 34.3861 62.4895 34.8171 61.772 35.1007C61.0544 35.3843 60.2853 35.5141 59.5145 35.4817C57.9268 35.4817 56.4041 34.851 55.2815 33.7283C54.1588 32.6056 53.5281 31.083 53.5281 29.4953C53.5281 27.9076 54.1588 26.385 55.2815 25.2623C56.4041 24.1396 57.9268 23.5089 59.5145 23.5089C61.0366 23.4863 62.5063 24.0643 63.6051 25.1178L65.189 23.5339C64.4457 22.7987 63.5631 22.2192 62.593 21.8295C61.6229 21.4397 60.5848 21.2475 59.5394 21.264C58.4307 21.2209 57.3246 21.402 56.2876 21.7965C55.2505 22.1911 54.3038 22.7909 53.5041 23.5601C52.7044 24.3293 52.0682 25.252 51.6337 26.2729C51.1991 27.2938 50.9751 28.392 50.9751 29.5015C50.9751 30.6111 51.1991 31.7093 51.6337 32.7302C52.0682 33.7511 52.7044 34.6738 53.5041 35.443C54.3038 36.2122 55.2505 36.812 56.2876 37.2065C57.3246 37.6011 58.4307 37.7822 59.5394 37.739C60.6062 37.7816 61.67 37.5981 62.6609 37.2004C63.6518 36.8028 64.5474 36.2001 65.2888 35.4318C66.5985 33.9931 67.2963 32.1008 67.2344 30.1563C67.2388 29.6883 67.2013 29.2208 67.1221 28.7595H59.5394ZM116.048 30.5055C115.723 29.5486 115.115 28.7131 114.304 28.1095C113.493 27.506 112.519 27.1629 111.509 27.1257C110.826 27.1244 110.151 27.263 109.525 27.5329C108.898 27.8029 108.334 28.1985 107.866 28.6953C107.398 29.1921 107.038 29.7795 106.806 30.4212C106.575 31.0629 106.477 31.7453 106.52 32.4261C106.509 33.5646 106.867 34.676 107.54 35.5942C108.213 36.5125 109.165 37.1884 110.254 37.5209C111.343 37.8535 112.51 37.8249 113.582 37.4393C114.653 37.0538 115.571 36.3321 116.198 35.3819L114.389 34.1347C114.12 34.5841 113.738 34.9551 113.28 35.2111C112.823 35.467 112.307 35.599 111.783 35.5939C111.242 35.6162 110.708 35.4745 110.249 35.1874C109.791 34.9002 109.43 34.4811 109.214 33.9851L116.31 31.0543L116.048 30.5055ZM108.815 32.2765C108.789 31.8891 108.842 31.5005 108.968 31.1336C109.095 30.7666 109.294 30.4287 109.553 30.1395C109.812 29.8503 110.126 29.6157 110.477 29.4494C110.828 29.2831 111.208 29.1885 111.596 29.171C111.998 29.1465 112.398 29.2411 112.746 29.443C113.094 29.6449 113.375 29.9451 113.554 30.306L108.815 32.2765ZM103.053 37.4148H105.385V21.8253H103.053V37.4148ZM99.2365 28.3105H99.1492C98.8008 27.9137 98.3708 27.5969 97.8886 27.3816C97.4065 27.1664 96.8835 27.0578 96.3555 27.0633C94.9926 27.1294 93.7074 27.7174 92.7662 28.7053C91.825 29.6933 91.3 31.0055 91.3 32.37C91.3 33.7345 91.825 35.0467 92.7662 36.0347C93.7074 37.0226 94.9926 37.6106 96.3555 37.6767C96.8843 37.6873 97.4089 37.581 97.8918 37.3654C98.3747 37.1498 98.8041 36.8302 99.1492 36.4295H99.2365V37.1903C99.2365 39.2231 98.1515 40.3082 96.4054 40.3082C95.8222 40.2954 95.2559 40.1095 94.7784 39.7742C94.301 39.4389 93.934 38.9693 93.724 38.425L91.7036 39.2606C92.0772 40.1987 92.7266 41.0015 93.5661 41.5626C94.4057 42.1238 95.3957 42.417 96.4054 42.4034C99.1367 42.4034 101.394 40.7946 101.394 36.8785V27.4375H99.2365V28.3105ZM96.5551 35.6438C95.7379 35.5928 94.971 35.2323 94.4103 34.6357C93.8497 34.039 93.5376 33.2511 93.5376 32.4324C93.5376 31.6136 93.8497 30.8257 94.4103 30.2291C94.971 29.6324 95.7379 29.2719 96.5551 29.2209C96.9545 29.2382 97.3463 29.3356 97.7073 29.5073C98.0683 29.6791 98.391 29.9217 98.6563 30.2207C98.9216 30.5198 99.124 30.8691 99.2515 31.248C99.3791 31.6269 99.4291 32.0275 99.3986 32.4261C99.4326 32.8261 99.3852 33.2288 99.2591 33.6099C99.1331 33.991 98.931 34.3425 98.6652 34.6433C98.3994 34.9441 98.0754 35.1878 97.7127 35.3598C97.35 35.5318 96.9562 35.6284 96.5551 35.6438ZM126.973 21.8253H121.386V37.4148H123.718V31.5032H126.973C127.638 31.551 128.305 31.4613 128.934 31.2397C129.562 31.0182 130.138 30.6695 130.626 30.2155C131.114 29.7615 131.503 29.2119 131.769 28.6009C132.035 27.9899 132.172 27.3306 132.172 26.6642C132.172 25.9979 132.035 25.3386 131.769 24.7276C131.503 24.1166 131.114 23.567 130.626 23.113C130.138 22.659 129.562 22.3103 128.934 22.0888C128.305 21.8672 127.638 21.7775 126.973 21.8253ZM126.973 29.3082H123.718V23.9953H127.023C127.374 23.9953 127.721 24.0644 128.045 24.1985C128.368 24.3326 128.663 24.5292 128.91 24.777C129.158 25.0249 129.355 25.3191 129.489 25.6429C129.623 25.9667 129.692 26.3138 129.692 26.6642C129.692 27.0147 129.623 27.3618 129.489 27.6856C129.355 28.0094 129.158 28.3036 128.91 28.5515C128.663 28.7993 128.368 28.9959 128.045 29.13C127.721 29.2641 127.374 29.3332 127.023 29.3332L126.973 29.3082ZM141.366 27.0758C140.516 27.0234 139.67 27.2212 138.932 27.6445C138.194 28.0679 137.596 28.6983 137.212 29.4579L139.27 30.3184C139.478 29.9435 139.79 29.6369 140.169 29.4355C140.547 29.2341 140.976 29.1466 141.403 29.1835C141.699 29.1489 141.999 29.1737 142.285 29.2562C142.572 29.3388 142.839 29.4776 143.071 29.6646C143.303 29.8515 143.496 30.0827 143.638 30.3449C143.78 30.607 143.868 30.8948 143.897 31.1914V31.3411C143.147 30.9469 142.313 30.7414 141.465 30.7425C139.245 30.7425 136.976 31.9896 136.976 34.2594C136.997 34.7419 137.116 35.215 137.325 35.6507C137.533 36.0864 137.827 36.4758 138.189 36.7957C138.55 37.1156 138.973 37.3596 139.431 37.513C139.889 37.6665 140.373 37.7264 140.854 37.6891C141.439 37.7215 142.023 37.5977 142.544 37.3303C143.066 37.0629 143.507 36.6616 143.822 36.1676H143.897V37.4148H146.142V31.4159C146.142 28.6846 144.072 27.1008 141.415 27.1008L141.366 27.0758ZM141.079 35.6189C140.318 35.6189 139.258 35.2322 139.258 34.2969C139.258 33.0497 140.58 32.6257 141.752 32.6257C142.493 32.6074 143.225 32.7883 143.872 33.1495C143.794 33.8268 143.473 34.4527 142.968 34.9114C142.464 35.37 141.81 35.6302 141.129 35.6438L141.079 35.6189ZM154.323 27.4375L151.655 34.1971H151.58L148.811 27.4375H146.317L150.47 36.891L148.1 42.1415H150.532L156.918 27.4375H154.323ZM133.371 37.4148H135.691V21.8253H133.371V37.4148Z" fill="white"/>
<path d="M13.0202 9.40371C12.6093 9.88963 12.3996 10.5143 12.4341 11.1497V38.7369C12.3916 39.3734 12.6023 40.0009 13.0202 40.4829L13.1075 40.5827L28.5598 25.1304V24.7562L13.1075 9.31641L13.0202 9.40371Z" fill="url(#paint0_linear_140_8746)"/>
<path d="M33.6732 30.2812L28.5598 25.1304V24.7562L33.6732 19.6055L33.7854 19.6803L39.909 23.1474C41.655 24.1327 41.655 25.754 39.909 26.7517L33.8104 30.2188L33.6732 30.2812Z" fill="url(#paint1_linear_140_8746)"/>
<path d="M33.8229 30.2064L28.5599 24.9434L13.0203 40.483C13.3727 40.7967 13.8238 40.9771 14.2953 40.9931C14.7668 41.009 15.2291 40.8594 15.6019 40.5703L33.8229 30.2064Z" fill="url(#paint2_linear_140_8746)"/>
<path d="M33.8229 19.6805L15.6019 9.32908C15.2315 9.03589 14.7696 8.88267 14.2974 8.89635C13.8253 8.91004 13.373 9.08976 13.0203 9.40391L28.5599 24.9435L33.8229 19.6805Z" fill="url(#paint3_linear_140_8746)"/>
<path opacity="0.2" d="M33.6732 30.0938L15.6019 40.3828C15.2426 40.6539 14.8048 40.8006 14.3547 40.8006C13.9046 40.8006 13.4668 40.6539 13.1076 40.3828L13.0203 40.4701L13.1076 40.5699C13.4668 40.841 13.9046 40.9877 14.3547 40.9877C14.8048 40.9877 15.2426 40.841 15.6019 40.5699L33.8229 30.206L33.6732 30.0938Z" fill="#1D1A2F"/>
<path opacity="0.12" d="M13.0205 40.3083C12.6199 39.8136 12.4236 39.1845 12.4718 38.5498V38.7369C12.4293 39.3734 12.64 40.0009 13.0579 40.4829L13.1452 40.3956L13.0205 40.3083Z" fill="#1D1A2F"/>
<path opacity="0.12" d="M39.9091 26.5647L33.6733 30.0941L33.7856 30.2064L39.9091 26.7393C40.2706 26.5864 40.5842 26.339 40.8168 26.0229C41.0495 25.7068 41.1926 25.3339 41.2311 24.9434C41.1532 25.2983 40.9929 25.6299 40.7633 25.9115C40.5336 26.1931 40.2411 26.4168 39.9091 26.5647Z" fill="#1D1A2F"/>
<path opacity="0.25" d="M15.6019 9.50335L39.909 23.3219C40.2409 23.4697 40.5335 23.6934 40.7631 23.975C40.9928 24.2567 41.153 24.5883 41.231 24.9432C41.1925 24.5526 41.0493 24.1797 40.8167 23.8636C40.584 23.5476 40.2705 23.3001 39.909 23.1473L15.6019 9.32874C13.8683 8.33101 12.4341 9.15414 12.4341 11.1496V11.3367C12.4715 9.34121 13.8683 8.51809 15.6019 9.50335Z" fill="white"/>
<path d="M52.5178 17.7973H51.6074V15.303H52.3807C52.7286 14.9253 52.9902 14.4765 53.1474 13.9876C53.3046 13.4988 53.3536 12.9816 53.2911 12.4719V8.73047H58.2797V15.2905H59.1153V17.7848H58.1924V16.2134H52.5178V17.7973ZM54.2514 12.4719C54.307 13.4738 54.0593 14.4691 53.5405 15.3279H57.282V9.65337H54.2514V12.4719Z" fill="white" stroke="white" stroke-width="0.235963" stroke-miterlimit="10"/>
<path d="M66.6107 15.2399C66.2516 15.6 65.8249 15.8857 65.3552 16.0807C64.8854 16.2756 64.3818 16.376 63.8732 16.376C63.3646 16.376 62.861 16.2756 62.3913 16.0807C61.9215 15.8857 61.4948 15.6 61.1357 15.2399C60.4222 14.4947 60.0239 13.5029 60.0239 12.4712C60.0239 11.4395 60.4222 10.4477 61.1357 9.7025C61.4948 9.34238 61.9215 9.05666 62.3913 8.86171C62.861 8.66676 63.3646 8.56641 63.8732 8.56641C64.3818 8.56641 64.8854 8.66676 65.3552 8.86171C65.8249 9.05666 66.2516 9.34238 66.6107 9.7025C66.971 10.0667 67.2548 10.4992 67.4454 10.9747C67.6361 11.4502 67.7297 11.959 67.7207 12.4712C67.7355 12.9841 67.6445 13.4946 67.4536 13.9709C67.2626 14.4472 66.9757 14.8792 66.6107 15.2399ZM61.8341 14.6163C62.0969 14.8892 62.4129 15.1053 62.7626 15.2512C63.1122 15.3971 63.4881 15.4696 63.867 15.4644C64.2461 15.4719 64.6227 15.4004 64.9727 15.2544C65.3227 15.1083 65.6384 14.891 65.8999 14.6163C66.438 14.0315 66.7367 13.2659 66.7367 12.4712C66.7367 11.6765 66.438 10.9108 65.8999 10.3261C65.6384 10.0513 65.3227 9.83404 64.9727 9.68803C64.6227 9.54202 64.2461 9.47049 63.867 9.47801C63.4881 9.47275 63.1122 9.54531 62.7626 9.69118C62.4129 9.83705 62.0969 10.0531 61.8341 10.3261C61.3039 10.9147 61.0105 11.6789 61.0105 12.4712C61.0105 13.2634 61.3039 14.0276 61.8341 14.6163Z" fill="white" stroke="white" stroke-width="0.235963" stroke-miterlimit="10"/>
<path d="M72.5598 16.3752C72.0552 16.3831 71.5542 16.2888 71.087 16.0981C70.6197 15.9073 70.1959 15.624 69.841 15.2652C69.1214 14.5132 68.7197 13.5124 68.7197 12.4716C68.7197 11.4307 69.1214 10.43 69.841 9.67792C70.2017 9.31293 70.6336 9.02604 71.1099 8.83509C71.5863 8.64414 72.0968 8.55321 72.6097 8.56795C73.1318 8.55318 73.6504 8.65785 74.1259 8.87399C74.6014 9.09013 75.0213 9.41202 75.3534 9.81511L74.6924 10.4636C74.4474 10.1486 74.1304 9.897 73.768 9.7299C73.4056 9.5628 73.0084 9.4851 72.6097 9.50332C72.2258 9.49353 71.844 9.56263 71.4879 9.70636C71.1318 9.85009 70.8089 10.0654 70.5394 10.3389C70.0022 10.9291 69.7045 11.6984 69.7045 12.4965C69.7045 13.2946 70.0022 14.0639 70.5394 14.6541C70.8089 14.9276 71.1318 15.1429 71.4879 15.2866C71.844 15.4304 72.2258 15.4995 72.6097 15.4897C73.0382 15.4775 73.4589 15.3719 73.8424 15.1801C74.2258 14.9884 74.5628 14.7152 74.8296 14.3797L75.5031 15.0407C75.1615 15.4501 74.7362 15.7818 74.2559 16.0135C73.7254 16.2614 73.1453 16.385 72.5598 16.3752Z" fill="white" stroke="white" stroke-width="0.235963" stroke-miterlimit="10"/>
<path d="M79.4191 16.2134H78.4588V9.65337H76.3635V8.73047H81.5018V9.65337H79.4191V16.2134Z" fill="white" stroke="white" stroke-width="0.235963" stroke-miterlimit="10"/>
<path d="M88.1118 8.73047L85.2807 15.0411C85.2121 15.2941 85.0892 15.5292 84.9207 15.73C84.7521 15.9308 84.5419 16.0926 84.3047 16.2041C84.0674 16.3156 83.8087 16.3742 83.5466 16.3758C83.2844 16.3774 83.025 16.322 82.7864 16.2134L83.0358 15.3279C83.1884 15.4137 83.3597 15.4608 83.5347 15.4651C83.7193 15.4744 83.9022 15.4265 84.0585 15.3279C84.21 15.2019 84.326 15.0385 84.3952 14.854L84.6696 14.2554L82.1753 8.73047H83.3102L85.156 13.0207L86.9769 8.73047H88.1118Z" fill="white" stroke="white" stroke-width="0.235963" stroke-miterlimit="10"/>
<path d="M89.1968 16.2134V8.73047H94.6095V16.2134H93.6491V9.65337H90.1571V16.2134H89.1968Z" fill="white" stroke="white" stroke-width="0.235963" stroke-miterlimit="10"/>
<path d="M96.3181 16.2134V8.73047H97.2784V11.9357H101.02V8.73047H101.993V16.2134H101.02V12.8336H97.2784V16.2134H96.3181Z" fill="white" stroke="white" stroke-width="0.235963" stroke-miterlimit="10"/>
<path d="M109.825 15.2399C109.465 15.6004 109.037 15.8864 108.566 16.0815C108.095 16.2766 107.591 16.377 107.081 16.377C106.571 16.377 106.067 16.2766 105.596 16.0815C105.125 15.8864 104.698 15.6004 104.337 15.2399C103.624 14.4947 103.226 13.5029 103.226 12.4712C103.226 11.4395 103.624 10.4477 104.337 9.7025C104.697 9.34238 105.123 9.05666 105.593 8.86171C106.063 8.66676 106.566 8.56641 107.075 8.56641C107.583 8.56641 108.087 8.66676 108.557 8.86171C109.027 9.05666 109.453 9.34238 109.812 9.7025C110.52 10.4506 110.915 11.4413 110.915 12.4712C110.915 13.5011 110.52 14.4918 109.812 15.2399H109.825ZM105.048 14.6163C105.31 14.891 105.625 15.1083 105.975 15.2544C106.325 15.4004 106.702 15.4719 107.081 15.4644C107.46 15.4696 107.836 15.3971 108.186 15.2512C108.535 15.1053 108.851 14.8892 109.114 14.6163C109.644 14.0276 109.938 13.2634 109.938 12.4712C109.938 11.6789 109.644 10.9147 109.114 10.3261C108.851 10.0531 108.535 9.83705 108.186 9.69118C107.836 9.54531 107.46 9.47275 107.081 9.47801C106.702 9.47049 106.325 9.54202 105.975 9.68803C105.625 9.83404 105.31 10.0513 105.048 10.3261C104.51 10.9108 104.211 11.6765 104.211 12.4712C104.211 13.2659 104.51 14.0315 105.048 14.6163Z" fill="white" stroke="white" stroke-width="0.235963" stroke-miterlimit="10"/>
<path d="M114.851 16.2126V8.72961H117.557C118.118 8.72397 118.661 8.92864 119.079 9.3033C119.287 9.48415 119.453 9.7086 119.565 9.96075C119.677 10.2129 119.733 10.4866 119.727 10.7625C119.73 11.0984 119.635 11.4279 119.453 11.7103C119.269 11.9781 119.014 12.1896 118.717 12.3214C119.077 12.4445 119.393 12.6699 119.627 12.9699C119.857 13.2756 119.979 13.648 119.977 14.03C119.983 14.3175 119.926 14.6029 119.81 14.8659C119.693 15.1289 119.52 15.363 119.303 15.5516C118.87 15.9544 118.298 16.1734 117.707 16.1627L114.851 16.2126ZM115.811 11.9348H117.557C117.721 11.9443 117.884 11.9166 118.035 11.854C118.186 11.7914 118.321 11.6953 118.43 11.5731C118.642 11.3659 118.763 11.0835 118.767 10.7874C118.779 10.4904 118.676 10.2002 118.48 9.97676C118.375 9.86046 118.246 9.76882 118.101 9.70844C117.957 9.64806 117.801 9.62044 117.644 9.62756H115.849L115.811 11.9348ZM115.811 15.2897H117.757C117.926 15.2953 118.094 15.2636 118.249 15.1968C118.404 15.1299 118.543 15.0296 118.655 14.903C118.87 14.673 118.99 14.37 118.991 14.055C118.984 13.7425 118.859 13.4443 118.642 13.2194C118.522 13.0931 118.377 12.9935 118.215 12.9269C118.054 12.8603 117.881 12.8282 117.707 12.8328H115.811V15.2897Z" fill="white" stroke="white" stroke-width="0.235963" stroke-miterlimit="10"/>
</g>
<defs>
<linearGradient id="paint0_linear_140_8746" x1="27.188" y1="10.8629" x2="6.26064" y2="31.7902" gradientUnits="userSpaceOnUse">
<stop stop-color="#00A0FF"/>
<stop offset="0.01" stop-color="#00A1FF"/>
<stop offset="0.26" stop-color="#00BEFF"/>
<stop offset="0.51" stop-color="#00D2FF"/>
<stop offset="0.76" stop-color="#00DFFF"/>
<stop offset="1" stop-color="#00E3FF"/>
</linearGradient>
<linearGradient id="paint1_linear_140_8746" x1="42.1913" y1="24.9433" x2="12.0225" y2="24.9433" gradientUnits="userSpaceOnUse">
<stop stop-color="#FFE000"/>
<stop offset="0.41" stop-color="#FFBD00"/>
<stop offset="0.78" stop-color="#FFA500"/>
<stop offset="1" stop-color="#FF9C00"/>
</linearGradient>
<linearGradient id="paint2_linear_140_8746" x1="30.9669" y1="27.8118" x2="2.58153" y2="56.1847" gradientUnits="userSpaceOnUse">
<stop stop-color="#FF3A44"/>
<stop offset="1" stop-color="#C31162"/>
</linearGradient>
<linearGradient id="paint3_linear_140_8746" x1="9.10418" y1="0.224817" x2="21.7753" y2="12.896" gradientUnits="userSpaceOnUse">
<stop stop-color="#32A071"/>
<stop offset="0.07" stop-color="#2DA771"/>
<stop offset="0.48" stop-color="#15CF74"/>
<stop offset="0.8" stop-color="#06E775"/>
<stop offset="1" stop-color="#00F076"/>
</linearGradient>
<clipPath id="clip0_140_8746">
<rect width="168.366" height="49.8864" fill="white"/>
</clipPath>
</defs>
</svg>
